eu\europa\ec\digit\userdata\controllers\EntityController.class
eu\europa\ec\digit\userdata\entities\Entity.class
eu\europa\ec\digit\userdata\controllers\RoleController.class
eu\europa\ec\digit\userdata\ServletInitializer.class
eu\europa\ec\digit\userdata\entities\Role.class
eu\europa\ec\digit\userdata\JWTAuthorizationFilter.class
eu\europa\ec\digit\userdata\repositories\RoleRepository.class
eu\europa\ec\digit\userdata\repositories\EntityRepository.class
eu\europa\ec\digit\userdata\Application$WebSecurityConfig.class
eu\europa\ec\digit\userdata\controllers\UserController.class
eu\europa\ec\digit\userdata\ApplicationConfiguration.class
eu\europa\ec\digit\userdata\Application.class
eu\europa\ec\digit\userdata\entities\User.class
eu\europa\ec\digit\userdata\repositories\UserRepository.class
