eu\europa\ec\leos\services\support\xml\AGEReferenceLabelServiceNumberedTest.class
eu\europa\ec\leos\services\util\TestUtils.class
eu\europa\ec\leos\services\support\xml\AGEReferenceLabelServiceUnnumberedTest.class
eu\europa\ec\leos\services\support\xml\AGEReferenceLabelServiceTest.class
