eu\europa\ec\leos\annotate\services\impl\MetadataMatchingServiceImpl$VersionSearchType.class
eu\europa\ec\leos\annotate\model\entity\Token.class
eu\europa\ec\leos\annotate\model\web\user\JsonUserProfile.class
eu\europa\ec\leos\annotate\services\exceptions\MissingPermissionException.class
eu\europa\ec\leos\annotate\services\impl\AnnotationServiceImpl.class
eu\europa\ec\leos\annotate\services\StaticContentService.class
eu\europa\ec\leos\annotate\services\impl\TagsServiceImpl.class
eu\europa\ec\leos\annotate\model\entity\Tag.class
eu\europa\ec\leos\annotate\services\exceptions\CannotStoreTokenException.class
eu\europa\ec\leos\annotate\repository\GroupRepository.class
eu\europa\ec\leos\annotate\repository\impl\AnnotationRepositoryImpl.class
eu\europa\ec\leos\annotate\services\DocumentService.class
eu\europa\ec\leos\annotate\websockets\AnnotateWebSocketHandler.class
eu\europa\ec\leos\annotate\websockets\MessageBroker$Subscription.class
eu\europa\ec\leos\annotate\controllers\AnnotationApiController.class
eu\europa\ec\leos\annotate\model\SimpleMetadata.class
eu\europa\ec\leos\annotate\Application$WebSocketConfig.class
eu\europa\ec\leos\annotate\model\search\AnnotationSearchResult.class
eu\europa\ec\leos\annotate\services\exceptions\CannotUpdateSentAnnotationException.class
eu\europa\ec\leos\annotate\aspects\Profiler.class
eu\europa\ec\leos\annotate\services\exceptions\CannotPublishContributionsException.class
eu\europa\ec\leos\annotate\services\exceptions\CannotUpdateAnnotationStatusException.class
eu\europa\ec\leos\annotate\model\search\OffsetBasedPageRequest.class
eu\europa\ec\leos\annotate\services\impl\StatusUpdateServiceImpl.class
eu\europa\ec\leos\annotate\services\MetadataService.class
eu\europa\ec\leos\annotate\services\AnnotationConversionService.class
eu\europa\ec\leos\annotate\services\AuthenticationServiceWithTestFunctions.class
eu\europa\ec\leos\annotate\model\web\websocket\JsonNotification.class
eu\europa\ec\leos\annotate\model\entity\UserGroup.class
eu\europa\ec\leos\annotate\model\search\Consts$SearchModelMode.class
eu\europa\ec\leos\annotate\model\search\SearchModelLeosSingleGroup.class
eu\europa\ec\leos\annotate\model\web\websocket\SubscriptionRequest.class
eu\europa\ec\leos\annotate\services\UUIDGeneratorService.class
eu\europa\ec\leos\annotate\Application$StaticWebMvcConfigurerAdapter.class
eu\europa\ec\leos\annotate\model\web\user\JsonFlash.class
eu\europa\ec\leos\annotate\model\GroupComparator.class
eu\europa\ec\leos\annotate\services\exceptions\CannotCreateMetadataException.class
eu\europa\ec\leos\annotate\model\web\annotation\JsonBulkDeleteSuccessResponse.class
eu\europa\ec\leos\annotate\model\entity\Group.class
eu\europa\ec\leos\annotate\model\web\StatusUpdateRequest.class
eu\europa\ec\leos\annotate\repository\impl\AnnotationSearchSpec.class
eu\europa\ec\leos\annotate\websockets\MessageBroker$ACTION.class
eu\europa\ec\leos\annotate\repository\MetadataRepository.class
eu\europa\ec\leos\annotate\repository\TagRepository.class
eu\europa\ec\leos\annotate\services\exceptions\UserNotFoundException.class
eu\europa\ec\leos\annotate\model\web\helper\LocalDateTimeSerializer.class
eu\europa\ec\leos\annotate\model\PublishContributionsResult.class
eu\europa\ec\leos\annotate\services\exceptions\CannotRejectSuggestionException.class
eu\europa\ec\leos\annotate\websockets\MessageBroker$SendTask.class
eu\europa\ec\leos\annotate\model\search\Consts.class
eu\europa\ec\leos\annotate\model\search\SearchModelIscSingleGroup.class
eu\europa\ec\leos\annotate\model\UserInformation.class
eu\europa\ec\leos\annotate\services\AuthenticationService.class
eu\europa\ec\leos\annotate\services\UserServiceWithTestFunctions.class
eu\europa\ec\leos\annotate\services\GroupService.class
eu\europa\ec\leos\annotate\model\web\PublishContributionsRequest.class
eu\europa\ec\leos\annotate\model\UserEntity.class
eu\europa\ec\leos\annotate\services\impl\GroupServiceImpl.class
eu\europa\ec\leos\annotate\model\entity\Annotation$AnnotationStatus.class
eu\europa\ec\leos\annotate\model\search\ResolvedSearchOptions.class
eu\europa\ec\leos\annotate\model\web\annotation\JsonAnnotationStatus.class
eu\europa\ec\leos\annotate\model\web\websocket\Clause.class
eu\europa\ec\leos\annotate\services\impl\DocumentServiceImpl.class
eu\europa\ec\leos\annotate\repository\TokenRepository.class
eu\europa\ec\leos\annotate\services\exceptions\CannotDeleteDocumentException.class
eu\europa\ec\leos\annotate\repository\UserGroupRepository.class
eu\europa\ec\leos\annotate\model\web\annotation\JsonAnnotationDocument.class
eu\europa\ec\leos\annotate\model\web\annotation\JsonSuggestionRejectSuccessResponse.class
eu\europa\ec\leos\annotate\model\web\annotation\JsonIdList.class
eu\europa\ec\leos\annotate\services\AGEStaticContentService.class
eu\europa\ec\leos\annotate\services\exceptions\AccessTokenExpiredException.class
eu\europa\ec\leos\annotate\model\entity\User.class
eu\europa\ec\leos\annotate\services\impl\MetadataMatchingServiceImpl$1.class
eu\europa\ec\leos\annotate\services\impl\AnnotationPermissionServiceImpl.class
eu\europa\ec\leos\annotate\websockets\MessageBroker$Message.class
eu\europa\ec\leos\annotate\Application$1.class
eu\europa\ec\leos\annotate\model\entity\Metadata.class
eu\europa\ec\leos\annotate\services\exceptions\CannotAcceptSuggestionException.class
eu\europa\ec\leos\annotate\services\impl\AnnotationPermissionServiceImpl$1.class
eu\europa\ec\leos\annotate\model\web\annotation\JsonAnnotation.class
eu\europa\ec\leos\annotate\model\entity\Document.class
eu\europa\ec\leos\annotate\repository\impl\AnnotationByIdSearchSpec.class
eu\europa\ec\leos\annotate\controllers\SuggestionApiController.class
eu\europa\ec\leos\annotate\model\ResponseStatusUpdateResult.class
eu\europa\ec\leos\annotate\repository\AnnotationRepository.class
eu\europa\ec\leos\annotate\model\web\user\JsonGroup.class
eu\europa\ec\leos\annotate\services\impl\MetadataMatchingServiceImpl.class
eu\europa\ec\leos\annotate\model\web\token\JsonTokenResponse.class
eu\europa\ec\leos\annotate\services\exceptions\NoSuggestionException.class
eu\europa\ec\leos\annotate\Generated.class
eu\europa\ec\leos\annotate\services\AnnotationService.class
eu\europa\ec\leos\annotate\controllers\AppController.class
eu\europa\ec\leos\annotate\controllers\GroupApiController.class
eu\europa\ec\leos\annotate\services\exceptions\UserAlreadyExistingException.class
eu\europa\ec\leos\annotate\services\exceptions\TokenFromUnknownClientException.class
eu\europa\ec\leos\annotate\aspects\NoAuthAnnotation.class
eu\europa\ec\leos\annotate\repository\impl\AnnotationReplySearchSpec.class
eu\europa\ec\leos\annotate\model\entity\AuthClient.class
eu\europa\ec\leos\annotate\model\web\annotation\JsonSearchResultWithSeparateReplies.class
eu\europa\ec\leos\annotate\model\web\websocket\Filter.class
eu\europa\ec\leos\annotate\services\exceptions\CannotAcceptSentSuggestionException.class
eu\europa\ec\leos\annotate\controllers\StatusApiController.class
eu\europa\ec\leos\annotate\model\MetadataIdsAndStatuses.class
eu\europa\ec\leos\annotate\services\impl\AnnotationPermissionServiceImpl$PossiblePermissions.class
eu\europa\ec\leos\annotate\model\search\SearchModelLeosAllGroups.class
eu\europa\ec\leos\annotate\model\web\annotation\JsonAnnotationPermissions.class
eu\europa\ec\leos\annotate\repository\impl\MetadataVersionUpToSearchSpec.class
eu\europa\ec\leos\annotate\services\UserService.class
eu\europa\ec\leos\annotate\services\impl\UserServiceImpl.class
eu\europa\ec\leos\annotate\model\entity\Annotation.class
eu\europa\ec\leos\annotate\model\web\annotation\JsonSuccessResponseBase.class
eu\europa\ec\leos\annotate\model\web\helper\SimpleMetadataWithStatusesDeserializer.class
eu\europa\ec\leos\annotate\model\web\annotation\JsonDeleteSuccessResponse.class
eu\europa\ec\leos\annotate\services\exceptions\CannotUpdateAnnotationException.class
eu\europa\ec\leos\annotate\model\web\annotation\JsonSearchCount.class
eu\europa\ec\leos\annotate\repository\AnnotationTestRepository.class
eu\europa\ec\leos\annotate\services\impl\UserDetailsCache.class
eu\europa\ec\leos\annotate\services\impl\AnnotationConversionServiceImpl.class
eu\europa\ec\leos\annotate\websockets\MessageBroker.class
eu\europa\ec\leos\annotate\model\web\helper\LocalDateTimeDeserializer.class
eu\europa\ec\leos\annotate\model\web\IncomingSearchOptions.class
eu\europa\ec\leos\annotate\model\web\user\JsonGroupWithDetails.class
eu\europa\ec\leos\annotate\services\exceptions\DefaultGroupNotFoundException.class
eu\europa\ec\leos\annotate\Authorities.class
eu\europa\ec\leos\annotate\services\impl\MetadataServiceImpl.class
eu\europa\ec\leos\annotate\model\web\user\JsonClientFeatures.class
eu\europa\ec\leos\annotate\repository\DocumentRepository.class
eu\europa\ec\leos\annotate\repository\UserRepository.class
eu\europa\ec\leos\annotate\aspects\AuthAspect.class
eu\europa\ec\leos\annotate\services\impl\AuthenticatedUserStore.class
eu\europa\ec\leos\annotate\services\impl\AuthenticationServiceImpl.class
eu\europa\ec\leos\annotate\model\web\status\PublishContributionsSuccessResponse.class
eu\europa\ec\leos\annotate\services\exceptions\CannotDeleteSentAnnotationException.class
eu\europa\ec\leos\annotate\controllers\StaticApiController.class
eu\europa\ec\leos\annotate\model\AnnotationComparator.class
eu\europa\ec\leos\annotate\model\web\user\JsonUserPreferences.class
eu\europa\ec\leos\annotate\repository\AuthClientRepository.class
eu\europa\ec\leos\annotate\model\web\annotation\JsonAnnotationDocumentLink.class
eu\europa\ec\leos\annotate\model\SimpleMetadataWithStatuses.class
eu\europa\ec\leos\annotate\services\TagsService.class
eu\europa\ec\leos\annotate\model\web\token\JsonAuthenticationFailure.class
eu\europa\ec\leos\annotate\services\impl\MetadataListHelper.class
eu\europa\ec\leos\annotate\services\exceptions\TokenInvalidForClientAuthorityException.class
eu\europa\ec\leos\annotate\services\MetadataMatchingService.class
eu\europa\ec\leos\annotate\services\impl\UUIDGeneratorServiceImpl.class
eu\europa\ec\leos\annotate\LocalDateTimeAttributeConverter.class
eu\europa\ec\leos\annotate\model\search\AnnotationSearchCountOptions.class
eu\europa\ec\leos\annotate\controllers\AuthApiController.class
eu\europa\ec\leos\annotate\model\search\Consts$SearchUserType.class
eu\europa\ec\leos\annotate\services\AnnotationPermissionServiceWithTestFunctions.class
eu\europa\ec\leos\annotate\services\exceptions\CannotCreateAnnotationException.class
eu\europa\ec\leos\annotate\model\web\helper\JsonConverter.class
eu\europa\ec\leos\annotate\model\web\helper\SimpleMetadataWithStatusesSerializer.class
eu\europa\ec\leos\annotate\services\exceptions\CannotDeleteAnnotationException.class
eu\europa\ec\leos\annotate\services\impl\AGEStaticContentServiceImpl.class
eu\europa\ec\leos\annotate\model\search\SearchModelIscAllGroups.class
eu\europa\ec\leos\annotate\controllers\UserApiController.class
eu\europa\ec\leos\annotate\model\search\SearchModel.class
eu\europa\ec\leos\annotate\services\exceptions\GroupAlreadyExistingException.class
eu\europa\ec\leos\annotate\model\web\user\JsonUserShowSideBarPreference.class
eu\europa\ec\leos\annotate\Application.class
eu\europa\ec\leos\annotate\model\entity\Metadata$ResponseStatus.class
eu\europa\ec\leos\annotate\services\exceptions\CannotCreateDocumentException.class
eu\europa\ec\leos\annotate\services\StatusUpdateService.class
eu\europa\ec\leos\annotate\services\impl\StaticContentServiceImpl.class
eu\europa\ec\leos\annotate\model\search\AnnotationSearchOptions.class
eu\europa\ec\leos\annotate\model\search\SearchModelFactory.class
eu\europa\ec\leos\annotate\model\web\JsonFailureResponse.class
eu\europa\ec\leos\annotate\services\impl\AuthenticationServiceImpl$RegisteredClient.class
eu\europa\ec\leos\annotate\repository\AnnotationRepositoryCustom.class
eu\europa\ec\leos\annotate\model\UserDetails.class
eu\europa\ec\leos\annotate\model\web\annotation\JsonAnnotationTargets.class
eu\europa\ec\leos\annotate\model\web\status\StatusUpdateSuccessResponse.class
eu\europa\ec\leos\annotate\services\exceptions\CannotRejectSentSuggestionException.class
eu\europa\ec\leos\annotate\websockets\WebSessionRegistry.class
eu\europa\ec\leos\annotate\model\web\user\JsonUserInfo.class
eu\europa\ec\leos\annotate\services\AnnotationPermissionService.class
eu\europa\ec\leos\annotate\model\web\annotation\JsonSearchResult.class
eu\europa\ec\leos\annotate\model\web\annotation\JsonSuggestionAcceptSuccessResponse.class
