eu\europa\ec\leos\integration\rest\UserJSON.class
eu\europa\ec\leos\integration\NotificationProvider.class
eu\europa\ec\leos\integration\rest\OJDocumentProviderImpl$1.class
eu\europa\ec\leos\integration\AnnotationProvider.class
eu\europa\ec\leos\integration\UsersProvider.class
eu\europa\ec\leos\integration\rest\AnnotationClientImpl.class
eu\europa\ec\leos\integration\ExternalDocumentProvider.class
eu\europa\ec\leos\integration\ToolBoxService.class
eu\europa\ec\leos\integration\rest\OJDocumentProviderImpl.class
eu\europa\ec\leos\integration\rest\UsersClientImpl$2.class
eu\europa\ec\leos\integration\rest\AnnotationAuthProvider.class
eu\europa\ec\leos\integration\rest\UsersClientImpl.class
eu\europa\ec\leos\integration\DocuWriteService.class
eu\europa\ec\leos\integration\rest\NotificationProviderImplOs.class
eu\europa\ec\leos\integration\rest\TokenJson.class
eu\europa\ec\leos\integration\rest\UsersClientImpl$1.class
